…
Aufbereiten der Daten

Die Daten wurden mit Spaltennamen versehen und es wurde eine zusätzliche Spalte mit der Gewichtung im Gesamtportfolio (Gewichtung Einzelwert im ETF * Gewichtung ETF im Portfolio) hinzugefügt. Anschließend wurden nur die notwendigen Spalten mit dem Ticker-Symbol, der ISIN und der Portfolio-Gewichtung ausgewählt.

colnames(NASDAQ_100) <- c("Symbol", "Company", "Weight", "ISIN")

NASDAQ_100 <- NASDAQ_100 %>%
  mutate(Weight = Weight / 100) %>%
  mutate(Weight_Perc_Nasdaq_100 = Weight * 0.2195) %>%
  select(1, 4, 5)

Das Ergebnis war folgende Tabelle (als tibble):

print(NASDAQ_100)
## # A tibble: 102 x 3
##    Symbol ISIN         Weight_Perc_Nasdaq_100
##    <chr>  <chr>                         <dbl>
##  1 AAPL   US0378331005                0.0246 
##  2 MSFT   US5949181045                0.0207 
##  3 AMZN   US0231351067                0.0184 
##  4 TSLA   US88160R1014                0.00957
##  5 GOOG   US02079K1079                0.00801
##  6 FB     US30303M1027                0.00733
##  7 GOOGL  US02079K3059                0.00727
##  8 NVDA   US67066G1040                0.00601
##  9 PYPL   US70450Y1038                0.00542
## 10 INTC   US4581401001                0.00450
## # … with 92 more rows
…
Die verschiedenen Tabellen wurden mit der Funktion join_all zusammengefügt.

weight_all <- plyr::join_all(list(NASDAQ_100, MSCI_World, MSCI_Info, Single_Stocks), by = "ISIN", type = "full")

Danach wurde die Summe der Werte aus Zahlenreichen der verschiedenen Tabellen gebildet und die Werte in absteigender Reihenfolge sortiert.

weight_all <- weight_all %>%
  replace(is.na(.), 0) %>%
  mutate(sum = rowSums(.[3:6])) %>%
  arrange(desc(sum)) %>%
  mutate(sum = sum * 100)

as_tibble(weight_all)
## # A tibble: 1,562 x 7
##    Symbol ISIN  Weight_Perc_Nas… Weight_Perc_MSC… Weight_Perc_MSC…
##    <chr>  <chr>            <dbl>            <dbl>            <dbl>
##  1 AAPL   US03…          0.0246         0.00647           0.00639 
##  2 DTE    DE00…          0              0.000198          0       
##  3 AMZN   US02…          0.0184         0.00407           0       
##  4 NVDA   US67…          0.00601        0.00103           0.00101 
##  5 SQ     US85…          0              0.000265          0.000260
##  6 DBK    DE00…          0              0.0000827         0       
##  7 MSFT   US59…          0.0207         0.00514           0.00508 
##  8 TWTR   US90…          0              0.000165          0       
##  9 ATVI   US00…          0.00134        0.000232          0       
## 10 TSLA   US88…          0.00957        0.00159           0       
## # … with 1,552 more rows, and 2 more variables:
## #   Weight_Perc_Single_Stocks <dbl>, sum <dbl>
…
